{
	"chromeWebSecurity": false ,
    "DevURL": "https://petronasdemo.assetdata.xyz/",
    "StagingURL": "https://petronastest.assetdata.io/",
	"viewportWidth": 1349,
	"viewportHeight": 639,
	"DevEmail": "shaszelin@isitup.com",
    "DevPassword": "test12345!",
    "StagingEmail": "ahmadubaidillah5@gmail.com",
    "StagingPassword": "!Nokia2300"
}